*** 8/27/2019 5:13:02 AM: 

*** 8/27/2019 5:13:02 AM: Has Git: False Folder: C:\LogiReports\InfoGo12_6_308

*** 8/27/2019 5:13:02 AM: Has Git: False Folder: C:\LogiReports

*** 8/27/2019 5:13:02 AM: Has Git: False Folder: C:\

