﻿claim_id,policy_holder,age,gender,claim_type,claim_amount,date_received,date_closed,process_days,status,DAYS_BUCKET_REAL,date_month,date_month_b
1132320H,Corinne Shepherd,43,F,Home,"65,000.00",4/10/20,4/30/20,20,Closed,10-20 days,20-Apr,4/1/20
1134351L,Marlene Dalton,75,F,Life,"500,000.00",4/12/20,5/18/20,36,Closed,30+ days,20-Apr,4/1/20
1138491L,Jaden Mcconnell,57,M,Life,"1,000,000.00",4/13/20,5/22/20,39,Closed,30+ days,20-Apr,4/1/20
1188250A,Camila Nguyen,38,F,Auto,"1,200.00",4/13/20,,,Declined,,20-Apr,4/1/20
1114538H,Bethany Todd,39,F,Home,"65,000.00",4/23/20,,,Declined,,20-Apr,4/1/20
1107492W,Trace Austin,48,M,Auto,"1,200.00",4/24/20,5/18/20,24,Closed,21-30 days,20-Apr,4/1/20
1154896L,Trace Jefferson,86,M,Life,"75,000.00",4/26/20,5/28/20,32,Closed,30+ days,20-Apr,4/1/20
1166752D,Karli Gaines,33,F,Disability,"4,500.00",4/27/20,,,Declined,,20-Apr,4/1/20
1196308L,Kallie Chang,47,F,Life,"100,000.00",4/27/20,5/28/20,31,Closed,30+ days,20-Apr,4/1/20
1198173A,Harmony Tate,62,F,Auto,"15,000.00",4/27/20,,,Declined,,20-Apr,4/1/20
1123864D,Macey Friedman,62,F,Disability,"48,000.00",4/29/20,6/12/20,42,Closed,30+ days,20-Apr,4/1/20
1170052W,Irvin Ferrell,43,M,Auto,"2,300.00",5/1/20,5/17/20,16,Closed,10-20 days,20-May,5/1/20
1198032A,Timothy Carney,33,M,Auto,"1,400.00",5/1/20,5/14/20,13,Closed,10-20 days,20-May,5/1/20
1170361L,Averi Spencer,87,F,Life,"1,200,000.00",5/5/20,5/28/20,23,Closed,21-30 days,20-May,5/1/20
1104158A,Giovanny Olson,33,M,Auto,"10,500.00",5/6/20,6/2/20,27,Closed,21-30 days,20-May,5/1/20
1167241H,Sanaa Banks,42,M,Home,"18,000.00",5/14/20,5/28/20,14,Closed,10-20 days,20-May,5/1/20
1111344D,Lisa Watkins,53,F,Disability,"36,000.00",5/17/20,6/15/20,29,Closed,21-30 days,20-May,5/1/20
1114356H,Giada Hinton,60,F,Home,"8,000.00",5/22/20,6/16/20,25,Closed,21-30 days,20-May,5/1/20
1127029A,Ace Ho,35,M,Auto,"3,200.00",5/22/20,6/1/20,10,Closed,less than 10 days,20-May,5/1/20
1143972D,Hallie Mullins,27,F,Disability,"6,300.00",5/23/20,6/30/20,35,Closed,30+ days,20-May,5/1/20
1116473A,Aidyn Haley,64,M,Auto,"5,200.00",6/2/20,6/22/20,20,Closed,10-20 days,20-Jun,6/1/20
1161325A,Amaya Luna,31,F,Auto,"5,400.00",6/2/20,6/16/20,14,Closed,10-20 days,20-Jun,6/1/20
1198536A,Garrett Hansen,59,M,Auto,"1,000.00",6/4/20,6/24/20,20,Closed,10-20 days,20-Jun,6/1/20
1181960D,Armani Johnston,54,M,Disability,"19,000.00",6/7/20,,,In Process,,20-Jun,6/1/20
1107496W,Jacey Obrien,44,M,Auto,800,6/10/20,6/30/20,20,Closed,21-30 days,20-Jun,6/1/20
1146564A,Collin Vincent,37,M,Auto,"8,500.00",6/10/20,,,Declined,,20-Jun,6/1/20
1147614D,Timothy Hoffman,54,M,Disability,"16,000.00",6/10/20,,,Declined,,20-Jun,6/1/20
1189279A,Santos Massey,41,M,Auto,500,6/10/20,7/3/20,23,Closed,21-30 days,20-Jun,6/1/20
1132472A,Jenny Rivas,56,F,Auto,"3,200.00",6/14/20,7/6/20,22,Closed,21-30 days,20-Jun,6/1/20
1196905A,Antoine Tapia,62,F,Auto,"4,800.00",6/20/20,,,In Process,,20-Jun,6/1/20
1144752A,Jack Haynes,34,M,Auto,"2,100.00",6/26/20,7/15/20,20,Closed,10-20 days,20-Jun,6/1/20
1197075H,Kiera Lutz,37,F,Home,"6,300.00",6/27/20,7/30/20,33,Closed,30+ days,20-Jun,6/1/20
1150875A,Kyra Bowman,63,F,Auto,"6,700.00",6/29/20,7/8/20,9,Closed,10-20 days,20-Jun,6/1/20
1165788H,Owen Garrett,55,M,Home,"6,200.00",6/30/20,7/29/20,29,Closed,21-30 days,20-Jun,6/1/20
1168320A,Reagan Ward,32,F,Auto,"7,200.00",7/1/20,,,In Process,,20-Jul,7/1/20
1177153A,Nyasia Howe,51,F,Auto,"1,800.00",7/5/20,7/30/20,25,Closed,21-30 days,20-Jul,7/1/20
1101100L,Annabelle Mack,52,F,Life,"250,000.00",7/6/20,,,In Process,,20-Jul,7/1/20
1135694D,Monica Hughes,27,F,Disability,"32,000.00",7/6/20,7/30/20,24,Closed,21-30 days,20-Jul,7/1/20
1172327A,Kaiya Burgess,28,F,Auto,"2,800.00",7/6/20,7/22/20,16,Closed,10-20 days,20-Jul,7/1/20
1185399A,Alisha Archer,76,F,Auto,600,7/7/20,7/21/20,14,Closed,10-20 days,20-Jul,7/1/20
1163049A,Selena Kelley,26,F,Auto,"2,400.00",7/9/20,,,In Process,,20-Jul,7/1/20
1171142D,Aimee Olsen,28,F,Disability,"8,000.00",7/9/20,,,In Process,,20-Jul,7/1/20
1176968D,Boston Henderson,37,F,Disability,"8,600.00",7/10/20,,,In Process,,20-Jul,7/1/20
1175116D,Billy Knapp,45,M,Disability,"15,000.00",7/17/20,,,In Process,,20-Jul,7/1/20
1106090L,Charlie Hampton,83,M,Life,"750,000.00",7/21/20,,,In Process,,20-Jul,7/1/20
1178082A,Ryleigh Mccoy,65,F,Auto,"3,200.00",7/21/20,,,In Process,,20-Jul,7/1/20
1154231A,Piper Dean,50,F,Auto,"11,000.00",7/22/20,,,In Process,,20-Jul,7/1/20
1116489H,Emery Beard,71,M,Home,"26,000.00",7/27/20,,,In Process,,20-Jul,7/1/20
1142662D,Evelin Tucker,49,F,Disability,"6,000.00",7/29/20,,,In Process,,20-Jul,7/1/20
1103985W,Kayden Taylor,58,M,Auto,"8,000.00",7/30/20,,,In Process,,20-Jul,7/1/20