*** 8/27/2019 11:53:10 AM: 

*** 8/27/2019 11:53:10 AM: Has Git: False Folder: C:\LogiReports\SupportQ3_2019

*** 8/27/2019 11:53:10 AM: Has Git: False Folder: C:\LogiReports

*** 8/27/2019 11:53:10 AM: Has Git: False Folder: C:\

