*** 7/30/2019 7:35:05 AM: 

*** 7/30/2019 7:35:05 AM: Has Git: False Folder: C:\LogiReports\InfoGo12_2_205

*** 7/30/2019 7:35:05 AM: Has Git: False Folder: C:\LogiReports

*** 7/30/2019 7:35:05 AM: Has Git: False Folder: C:\

