*** 7/30/2019 7:10:02 AM: 

*** 7/30/2019 7:10:02 AM: Has Git: False Folder: C:\LogiReports\InfoGo12_7_329T

*** 7/30/2019 7:10:02 AM: Has Git: False Folder: C:\LogiReports

*** 7/30/2019 7:10:02 AM: Has Git: False Folder: C:\

